{
  "annotations": {
    "list": [
      {
        "builtIn": 1,
        "datasource": "-- Grafana --",
        "enable": true,
        "hide": true,
        "iconColor": "rgba(0, 211, 255, 1)",
        "name": "Annotations & Alerts",
        "type": "dashboard"
      }
    ]
  },
  "editable": true,
  "gnetId": null,
  "graphTooltip": 0,
  "id": 3,
  "links": [],
  "panels": [
    {
      "datasource": null,
      "gridPos": {
        "h": 11,
        "w": 13,
        "x": 0,
        "y": 0
      },
      "id": 4,
      "options": {
        "displayMode": "gradient",
        "fieldOptions": {
          "calcs": [
            "mean"
          ],
          "defaults": {
            "mappings": [],
            "max": 80000,
            "min": 0,
            "thresholds": [
              {
                "color": "green",
                "value": null
              },
              {
                "color": "red",
                "value": 70000
              }
            ]
          },
          "limit": 10,
          "override": {},
          "values": true
        },
        "orientation": "vertical"
      },
      "pluginVersion": "6.4.3",
      "targets": [
        {
          "format": "time_series",
          "group": [],
          "metricColumn": "none",
          "rawQuery": true,
          "rawSql": "SELECT\n  l.libelle as metric,\n  count(o.id) as value,\n  l.id as time\nfrom objet o\njoin lieu l on l.id = o.id_lieu_creation\nwhere l.id <> 1\ngroup by l.id, l.libelle\norder by count(o.id) desc\n",
          "refId": "A",
          "select": [
            [
              {
                "params": [
                  "value"
                ],
                "type": "column"
              }
            ]
          ],
          "timeColumn": "time",
          "where": [
            {
              "name": "$__timeFilter",
              "params": [],
              "type": "macro"
            }
          ]
        }
      ],
      "timeFrom": null,
      "timeShift": null,
      "title": "Objets par lieux de découverte",
      "type": "bargauge"
    },
    {
      "datasource": null,
      "gridPos": {
        "h": 11,
        "w": 13,
        "x": 0,
        "y": 11
      },
      "id": 2,
      "options": {
        "displayMode": "gradient",
        "fieldOptions": {
          "calcs": [
            "mean"
          ],
          "defaults": {
            "mappings": [],
            "max": 126000,
            "min": 0,
            "thresholds": [
              {
                "color": "green",
                "value": null
              },
              {
                "color": "yellow",
                "value": 10000
              },
              {
                "color": "red",
                "value": 100000
              }
            ],
            "title": ""
          },
          "limit": 10,
          "override": {},
          "values": true
        },
        "orientation": "horizontal"
      },
      "pluginVersion": "6.4.3",
      "targets": [
        {
          "format": "time_series",
          "group": [],
          "metricColumn": "none",
          "rawQuery": true,
          "rawSql": "SELECT\n  lc.ville as metric,\n  count(o.id) as value,\n  lc.id as time\nfrom objet o\njoin lieu_conservation lc on lc.id = o.id_lieu_conservation\nwhere lc.id <> 1\ngroup by lc.ville\norder by count(o.id) desc\n",
          "refId": "A",
          "select": [
            [
              {
                "params": [
                  "value"
                ],
                "type": "column"
              }
            ]
          ],
          "timeColumn": "time",
          "where": [
            {
              "name": "$__timeFilter",
              "params": [],
              "type": "macro"
            }
          ]
        }
      ],
      "timeFrom": null,
      "timeShift": null,
      "title": "Objets par lieux de conservation",
      "type": "bargauge"
    }
  ],
  "schemaVersion": 20,
  "style": "dark",
  "tags": [],
  "templating": {
    "list": []
  },
  "time": {
    "from": "now-6h",
    "to": "now"
  },
  "timepicker": {},
  "timezone": "",
  "title": "Objet par Lieu de conservation",
  "uid": "ufUuw-0Zz",
  "version": 5
}